# 3ds Max Wavefront OBJ Exporter v0.97b - (c)2007 guruware
# File Created: 23.08.2015 14:30:26

#
# object VIFS001
#

v  0.0000 0.0000 0.2500
v  0.0000 1.0000 0.2500
v  0.0000 0.0000 0.0000
v  0.0000 1.0000 0.0000
v  1.0000 0.0000 0.2500
v  1.0000 0.0000 0.0000
v  1.0000 1.0000 0.2500
v  1.0000 1.0000 0.0000
v  0.8886 0.4926 0.2500
v  0.8747 0.4667 0.2500
v  0.8561 0.4439 0.2500
v  0.8333 0.4253 0.2500
v  0.8074 0.4114 0.2500
v  0.7793 0.8971 0.2500
v  0.8074 0.8886 0.2500
v  0.8747 0.8333 0.2500
v  0.8886 0.8074 0.2500
v  0.8971 0.7793 0.2500
v  0.8333 0.8747 0.2500
v  0.8561 0.8561 0.2500
v  0.9000 0.7500 0.2500
v  0.9000 0.5500 0.2500
v  0.8971 0.5207 0.2500
v  0.1926 0.8886 0.2500
v  0.1667 0.8747 0.2500
v  0.1439 0.8561 0.2500
v  0.2207 0.8971 0.2500
v  0.2500 0.9000 0.2500
v  0.7500 0.9000 0.2500
v  0.1667 0.4253 0.2500
v  0.1926 0.4114 0.2500
v  0.2207 0.4029 0.2500
v  0.1029 0.7793 0.2500
v  0.1114 0.8074 0.2500
v  0.1253 0.8333 0.2500
v  0.1439 0.4439 0.2500
v  0.1253 0.4667 0.2500
v  0.1114 0.4926 0.2500
v  0.7793 0.4029 0.2500
v  0.7500 0.4000 0.2500
v  0.2500 0.4000 0.2500
v  0.1029 0.5207 0.2500
v  0.1000 0.5500 0.2500
v  0.1000 0.7500 0.2500
v  0.7759 0.4534 0.0000
v  0.8000 0.4634 0.0000
v  0.8207 0.4793 0.0000
v  0.8366 0.5000 0.0000
v  0.2241 0.8466 0.0000
v  0.2000 0.8366 0.0000
v  0.1534 0.7759 0.0000
v  0.1500 0.7500 0.0000
v  0.1500 0.5500 0.0000
v  0.1534 0.5241 0.0000
v  0.1634 0.5000 0.0000
v  0.1793 0.4793 0.0000
v  0.2000 0.4634 0.0000
v  0.8466 0.7759 0.0000
v  0.8366 0.8000 0.0000
v  0.8207 0.8207 0.0000
v  0.8000 0.8366 0.0000
v  0.1793 0.8207 0.0000
v  0.1634 0.8000 0.0000
v  0.8466 0.5241 0.0000
v  0.8500 0.5500 0.0000
v  0.8500 0.7500 0.0000
v  0.7759 0.8466 0.0000
v  0.7500 0.8500 0.0000
v  0.2500 0.8500 0.0000
v  0.2241 0.4534 0.0000
v  0.2500 0.4500 0.0000
v  0.7500 0.4500 0.0000
v  0.1500 0.5500 0.2000
v  0.1519 0.5305 0.2000
v  0.1538 0.5242 0.2000
v  0.1576 0.5117 0.2000
v  0.1638 0.5002 0.2000
v  0.1669 0.4944 0.2000
v  0.1793 0.4793 0.2000
v  0.1944 0.4669 0.2000
v  0.2002 0.4638 0.2000
v  0.2117 0.4576 0.2000
v  0.2500 0.4500 0.2000
v  0.2305 0.4519 0.2000
v  0.2242 0.4538 0.2000
v  0.7500 0.4500 0.2000
v  0.7695 0.4519 0.2000
v  0.7758 0.4538 0.2000
v  0.7883 0.4576 0.2000
v  0.7998 0.4638 0.2000
v  0.8056 0.4669 0.2000
v  0.8207 0.4793 0.2000
v  0.8331 0.4944 0.2000
v  0.8362 0.5002 0.2000
v  0.8424 0.5117 0.2000
v  0.8500 0.5500 0.2000
v  0.8481 0.5305 0.2000
v  0.8462 0.5242 0.2000
v  0.8500 0.7500 0.2000
v  0.8481 0.7695 0.2000
v  0.8462 0.7758 0.2000
v  0.8424 0.7883 0.2000
v  0.8362 0.7998 0.2000
v  0.8331 0.8056 0.2000
v  0.8207 0.8207 0.2000
v  0.8056 0.8331 0.2000
v  0.7998 0.8362 0.2000
v  0.7883 0.8424 0.2000
v  0.7500 0.8500 0.2000
v  0.7695 0.8481 0.2000
v  0.7758 0.8462 0.2000
v  0.2500 0.8500 0.2000
v  0.2305 0.8481 0.2000
v  0.2242 0.8462 0.2000
v  0.2117 0.8424 0.2000
v  0.2002 0.8362 0.2000
v  0.1944 0.8331 0.2000
v  0.1793 0.8207 0.2000
v  0.1669 0.8056 0.2000
v  0.1638 0.7998 0.2000
v  0.1576 0.7883 0.2000
v  0.1500 0.7500 0.2000
v  0.1519 0.7695 0.2000
v  0.1538 0.7758 0.2000
# 124 vertices

vn -1.0000 0.0000 0.0000
vn 0.0000 -1.0000 0.0000
vn 1.0000 0.0000 0.0000
vn 0.0000 1.0000 0.0000
vn 0.0000 0.0000 1.0000
vn 0.0000 0.0000 -1.0000
vn 0.9988 0.0491 0.0000
vn 0.9809 0.1944 -0.0009
vn 0.9979 0.0644 0.0015
vn 0.9660 0.2585 0.0036
vn 0.9569 0.2903 -0.0021
vn 0.9239 0.3827 -0.0019
vn 0.8659 0.5003 0.0036
vn 0.8819 0.4714 -0.0021
vn 0.8311 0.5561 -0.0009
vn 0.7071 0.7071 0.0030
vn 0.7071 0.7071 0.0000
vn 0.5561 0.8311 -0.0009
vn 0.5003 0.8659 0.0036
vn 0.4714 0.8819 -0.0021
vn 0.3827 0.9239 -0.0019
vn 0.2585 0.9660 0.0036
vn 0.0491 0.9988 0.0000
vn 0.0644 0.9979 0.0015
vn 0.1944 0.9809 -0.0009
vn 0.2903 0.9569 -0.0021
vn -0.0491 0.9988 0.0000
vn -0.0644 0.9979 0.0015
vn -0.1944 0.9809 -0.0009
vn -0.2585 0.9660 0.0036
vn -0.2903 0.9569 -0.0021
vn -0.3827 0.9239 -0.0019
vn -0.5003 0.8659 0.0036
vn -0.4714 0.8819 -0.0021
vn -0.5561 0.8311 -0.0009
vn -0.7071 0.7071 0.0030
vn -0.7071 0.7071 0.0000
vn -0.8311 0.5561 -0.0009
vn -0.8659 0.5003 0.0036
vn -0.8819 0.4714 -0.0021
vn -0.9239 0.3827 -0.0019
vn -0.9660 0.2585 0.0036
vn -0.9988 0.0491 0.0000
vn -0.9979 0.0644 0.0015
vn -0.9809 0.1944 -0.0009
vn -0.9569 0.2903 -0.0021
vn -0.9988 -0.0491 0.0000
vn -0.9979 -0.0644 0.0015
vn -0.9809 -0.1944 -0.0009
vn -0.9660 -0.2585 0.0036
vn -0.9569 -0.2903 -0.0021
vn -0.9239 -0.3827 -0.0019
vn -0.8659 -0.5003 0.0036
vn -0.8819 -0.4714 -0.0021
vn -0.8311 -0.5561 -0.0009
vn -0.7071 -0.7071 0.0030
vn -0.7071 -0.7071 0.0000
vn -0.5561 -0.8311 -0.0009
vn -0.5003 -0.8659 0.0036
vn -0.4714 -0.8819 -0.0021
vn -0.3827 -0.9239 -0.0019
vn -0.2585 -0.9660 0.0036
vn -0.0491 -0.9988 0.0000
vn -0.0644 -0.9979 0.0015
vn -0.1944 -0.9809 -0.0009
vn -0.2903 -0.9569 -0.0021
vn 0.0491 -0.9988 0.0000
vn 0.0644 -0.9979 0.0015
vn 0.1944 -0.9809 -0.0009
vn 0.2585 -0.9660 0.0036
vn 0.2903 -0.9569 -0.0021
vn 0.3827 -0.9239 -0.0019
vn 0.5003 -0.8659 0.0036
vn 0.4714 -0.8819 -0.0021
vn 0.5561 -0.8311 -0.0009
vn 0.7071 -0.7071 0.0030
vn 0.7071 -0.7071 0.0000
vn 0.8311 -0.5561 -0.0009
vn 0.8659 -0.5003 0.0036
vn 0.8819 -0.4714 -0.0021
vn 0.9239 -0.3827 -0.0019
vn 0.9660 -0.2585 0.0036
vn 0.9988 -0.0491 0.0000
vn 0.9979 -0.0644 0.0015
vn 0.9809 -0.1944 -0.0009
vn 0.9569 -0.2903 -0.0021
vn -0.0355 -0.7067 0.7067
vn -0.0340 -0.7067 0.7067
vn 0.0355 -0.7067 0.7067
vn 0.0340 -0.7067 0.7067
vn -0.1380 -0.6935 0.7071
vn -0.2058 -0.6783 0.7054
vn -0.2706 -0.6533 0.7071
vn -0.3341 -0.6251 0.7054
vn -0.3928 -0.5879 0.7071
vn -0.3928 -0.5880 0.7071
vn -0.5000 -0.5000 0.7071
vn -0.5879 -0.3928 0.7071
vn -0.5880 -0.3928 0.7071
vn -0.6251 -0.3341 0.7054
vn -0.6533 -0.2706 0.7071
vn -0.7067 -0.0355 0.7067
vn -0.7067 -0.0340 0.7067
vn -0.6935 -0.1380 0.7071
vn -0.6783 -0.2058 0.7054
vn 0.6935 -0.1380 0.7071
vn 0.7067 -0.0340 0.7067
vn 0.7067 -0.0355 0.7067
vn 0.6783 -0.2058 0.7054
vn 0.6533 -0.2706 0.7071
vn 0.6251 -0.3341 0.7054
vn 0.5879 -0.3928 0.7071
vn 0.5880 -0.3928 0.7071
vn 0.5000 -0.5000 0.7071
vn 0.3929 -0.5879 0.7071
vn 0.3928 -0.5880 0.7071
vn 0.3341 -0.6251 0.7054
vn 0.2706 -0.6533 0.7071
vn 0.1380 -0.6935 0.7071
vn 0.1379 -0.6935 0.7071
vn 0.2058 -0.6783 0.7054
vn -0.7067 0.0355 0.7067
vn -0.7067 0.0340 0.7067
vn 0.7067 0.0340 0.7067
vn 0.7067 0.0355 0.7067
vn -0.6935 0.1379 0.7071
vn -0.6935 0.1380 0.7071
vn -0.6783 0.2058 0.7054
vn -0.6533 0.2706 0.7071
vn -0.6251 0.3341 0.7054
vn -0.5879 0.3929 0.7071
vn -0.5880 0.3928 0.7071
vn -0.5000 0.5000 0.7071
vn -0.3928 0.5879 0.7071
vn -0.3928 0.5880 0.7071
vn -0.3341 0.6251 0.7054
vn -0.2706 0.6533 0.7071
vn -0.0355 0.7067 0.7067
vn -0.0340 0.7067 0.7067
vn -0.1380 0.6935 0.7071
vn -0.2058 0.6783 0.7054
vn 0.1379 0.6935 0.7071
vn 0.0340 0.7067 0.7067
vn 0.0355 0.7067 0.7067
vn 0.1380 0.6935 0.7071
vn 0.2058 0.6783 0.7054
vn 0.2706 0.6533 0.7071
vn 0.3341 0.6251 0.7054
vn 0.3929 0.5879 0.7071
vn 0.3928 0.5880 0.7071
vn 0.5000 0.5000 0.7071
vn 0.5879 0.3929 0.7071
vn 0.5880 0.3928 0.7071
vn 0.6251 0.3341 0.7054
vn 0.6533 0.2706 0.7071
vn 0.6935 0.1380 0.7071
vn 0.6935 0.1379 0.7071
vn 0.6783 0.2058 0.7054
# 158 vertex normals

g VIFS001
s 1
f 1//1 2//1 3//1 
f 3//1 2//1 4//1 
s 2
f 5//2 1//2 6//2 
f 6//2 1//2 3//2 
s 1
f 7//3 5//3 8//3 
f 8//3 5//3 6//3 
s 2
f 2//4 7//4 4//4 
f 4//4 7//4 8//4 
s 4
f 9//5 10//5 5//5 
f 10//5 11//5 5//5 
f 5//5 11//5 12//5 
f 5//5 12//5 13//5 
f 7//5 14//5 15//5 
f 16//5 17//5 7//5 
f 7//5 17//5 18//5 
f 15//5 19//5 7//5 
f 7//5 19//5 20//5 
f 7//5 20//5 16//5 
f 18//5 21//5 7//5 
f 7//5 21//5 22//5 
f 7//5 22//5 5//5 
f 5//5 22//5 23//5 
f 5//5 23//5 9//5 
f 24//5 2//5 25//5 
f 25//5 2//5 26//5 
f 24//5 27//5 2//5 
f 2//5 27//5 28//5 
f 2//5 28//5 7//5 
f 7//5 28//5 29//5 
f 7//5 29//5 14//5 
f 30//5 1//5 31//5 
f 31//5 1//5 32//5 
f 33//5 34//5 2//5 
f 2//5 34//5 35//5 
f 2//5 35//5 26//5 
f 30//5 36//5 1//5 
f 1//5 36//5 37//5 
f 1//5 37//5 38//5 
f 13//5 39//5 5//5 
f 5//5 39//5 40//5 
f 5//5 40//5 1//5 
f 1//5 40//5 41//5 
f 1//5 41//5 32//5 
f 38//5 42//5 1//5 
f 1//5 42//5 43//5 
f 1//5 43//5 2//5 
f 2//5 43//5 44//5 
f 2//5 44//5 33//5 
f 45//6 46//6 6//6 
f 6//6 46//6 47//6 
f 6//6 47//6 48//6 
f 4//6 49//6 50//6 
f 51//6 52//6 4//6 
f 4//6 52//6 53//6 
f 4//6 53//6 3//6 
f 3//6 53//6 54//6 
f 54//6 55//6 3//6 
f 3//6 55//6 56//6 
f 3//6 56//6 57//6 
f 58//6 59//6 8//6 
f 8//6 59//6 60//6 
f 8//6 60//6 61//6 
f 50//6 62//6 4//6 
f 4//6 62//6 63//6 
f 4//6 63//6 51//6 
f 48//6 64//6 6//6 
f 6//6 64//6 65//6 
f 6//6 65//6 8//6 
f 8//6 65//6 66//6 
f 8//6 66//6 58//6 
f 61//6 67//6 8//6 
f 8//6 67//6 68//6 
f 8//6 68//6 4//6 
f 4//6 68//6 69//6 
f 4//6 69//6 49//6 
f 57//6 70//6 3//6 
f 3//6 70//6 71//6 
f 3//6 71//6 6//6 
f 6//6 71//6 72//6 
f 6//6 72//6 45//6 
s 1
f 73//7 74//8 53//9 
f 53//9 74//8 54//10 
f 74//8 75//11 54//10 
f 54//10 75//11 76//12 
f 54//10 76//12 55//13 
f 76//12 77//14 55//13 
f 55//13 77//14 78//15 
f 55//13 78//15 56//16 
f 78//15 79//17 56//16 
f 56//16 79//17 80//18 
f 56//16 80//18 57//19 
f 80//18 81//20 57//19 
f 57//19 81//20 82//21 
f 57//19 82//21 70//22 
f 83//23 71//24 84//25 
f 84//25 71//24 70//22 
f 84//25 70//22 85//26 
f 85//26 70//22 82//21 
f 86//27 72//28 83//23 
f 83//23 72//28 71//24 
f 86//27 87//29 72//28 
f 72//28 87//29 45//30 
f 87//29 88//31 45//30 
f 45//30 88//31 89//32 
f 45//30 89//32 46//33 
f 89//32 90//34 46//33 
f 46//33 90//34 91//35 
f 46//33 91//35 47//36 
f 91//35 92//37 47//36 
f 47//36 92//37 93//38 
f 47//36 93//38 48//39 
f 93//38 94//40 48//39 
f 48//39 94//40 95//41 
f 48//39 95//41 64//42 
f 96//43 65//44 97//45 
f 97//45 65//44 64//42 
f 97//45 64//42 98//46 
f 98//46 64//42 95//41 
f 99//47 66//48 96//43 
f 96//43 66//48 65//44 
f 99//47 100//49 66//48 
f 66//48 100//49 58//50 
f 100//49 101//51 58//50 
f 58//50 101//51 102//52 
f 58//50 102//52 59//53 
f 102//52 103//54 59//53 
f 59//53 103//54 104//55 
f 59//53 104//55 60//56 
f 104//55 105//57 60//56 
f 60//56 105//57 106//58 
f 60//56 106//58 61//59 
f 106//58 107//60 61//59 
f 61//59 107//60 108//61 
f 61//59 108//61 67//62 
f 109//63 68//64 110//65 
f 110//65 68//64 67//62 
f 110//65 67//62 111//66 
f 111//66 67//62 108//61 
f 112//67 69//68 109//63 
f 109//63 69//68 68//64 
f 112//67 113//69 69//68 
f 69//68 113//69 49//70 
f 113//69 114//71 49//70 
f 49//70 114//71 115//72 
f 49//70 115//72 50//73 
f 115//72 116//74 50//73 
f 50//73 116//74 117//75 
f 50//73 117//75 62//76 
f 117//75 118//77 62//76 
f 62//76 118//77 119//78 
f 62//76 119//78 63//79 
f 119//78 120//80 63//79 
f 63//79 120//80 121//81 
f 63//79 121//81 51//82 
f 122//83 52//84 123//85 
f 123//85 52//84 51//82 
f 123//85 51//82 124//86 
f 124//86 51//82 121//81 
f 73//7 53//9 122//83 
f 122//83 53//9 52//84 
s 2
f 109//87 29//88 112//89 
f 112//89 29//88 28//90 
f 14//91 29//88 109//87 
f 109//87 110//91 14//91 
f 14//91 110//91 111//92 
f 14//91 111//92 15//93 
f 111//92 108//93 15//93 
f 15//93 108//93 107//94 
f 15//93 107//94 19//95 
f 19//95 107//94 106//96 
f 19//95 106//96 20//97 
f 20//97 106//96 105//97 
f 20//97 105//97 16//98 
f 105//97 104//99 16//98 
f 16//98 104//99 103//100 
f 16//98 103//100 17//101 
f 99//102 21//103 100//104 
f 100//104 21//103 18//104 
f 100//104 18//104 101//105 
f 101//105 18//104 17//101 
f 101//105 17//101 102//101 
f 102//101 17//101 103//100 
f 33//106 44//107 122//108 
f 122//108 123//106 33//106 
f 33//106 123//106 124//109 
f 33//106 124//109 34//110 
f 124//109 121//110 34//110 
f 34//110 121//110 120//111 
f 34//110 120//111 35//112 
f 35//112 120//111 119//113 
f 35//112 119//113 26//114 
f 26//114 119//113 118//114 
f 26//114 118//114 25//115 
f 118//114 117//116 25//115 
f 25//115 117//116 116//117 
f 25//115 116//117 24//118 
f 112//89 28//90 113//119 
f 113//119 28//90 27//120 
f 113//119 27//120 114//121 
f 114//121 27//120 24//118 
f 114//121 24//118 115//118 
f 115//118 24//118 116//117 
f 96//122 22//123 99//102 
f 99//102 22//123 21//103 
f 43//124 73//125 44//107 
f 44//107 73//125 122//108 
f 23//126 22//123 96//122 
f 96//122 97//127 23//126 
f 23//126 97//127 98//128 
f 23//126 98//128 9//129 
f 98//128 95//129 9//129 
f 9//129 95//129 94//130 
f 9//129 94//130 10//131 
f 10//131 94//130 93//132 
f 10//131 93//132 11//133 
f 11//133 93//132 92//133 
f 11//133 92//133 12//134 
f 92//133 91//135 12//134 
f 12//134 91//135 90//136 
f 12//134 90//136 13//137 
f 86//138 40//139 87//140 
f 87//140 40//139 39//140 
f 87//140 39//140 88//141 
f 88//141 39//140 13//137 
f 88//141 13//137 89//137 
f 89//137 13//137 90//136 
f 32//142 41//143 83//144 
f 83//144 84//145 32//142 
f 32//142 84//145 85//146 
f 32//142 85//146 31//147 
f 85//146 82//147 31//147 
f 31//147 82//147 81//148 
f 31//147 81//148 30//149 
f 30//149 81//148 80//150 
f 30//149 80//150 36//151 
f 36//151 80//150 79//151 
f 36//151 79//151 37//152 
f 79//151 78//153 37//152 
f 37//152 78//153 77//154 
f 37//152 77//154 38//155 
f 73//125 43//124 74//156 
f 74//156 43//124 42//157 
f 74//156 42//157 75//158 
f 75//158 42//157 38//155 
f 75//158 38//155 76//155 
f 76//155 38//155 77//154 
f 83//144 41//143 86//138 
f 86//138 41//143 40//139 
# 0 polygons - 248 triangles

